<?xml version="1.0" encoding="utf-8"?>
<!-- Generator: Adobe Illustrator 16.0.0, SVG Export Plug-In . SVG Version: 6.00 Build 0)  -->
<!DOCTYPE svg PUBLIC "-//W3C//DTD SVG 1.1//EN" "http://www.w3.org/Graphics/SVG/1.1/DTD/svg11.dtd">
<svg version="1.1" id="Layer_1" xmlns="http://www.w3.org/2000/svg" xmlns:xlink="http://www.w3.org/1999/xlink" x="0px" y="0px"
	 width="20.595px" height="18.169px" viewBox="-37.098 27.926 20.595 18.169" enable-background="new -37.098 27.926 20.595 18.169"
	 xml:space="preserve">
<g>
	<circle fill="#F7F7F7" cx="-25.588" cy="37.638" r="1.062"/>
	<path fill="#F7F7F7" d="M-29.859,34.764v5.873h8.541v-5.873h-1.639c0-0.007,0-0.013,0-0.021c0-1.449-1.18-2.63-2.63-2.63
		c-1.308,0-2.427,0.977-2.604,2.272l-0.033,0.236h0.978l0.031-0.172c0.143-0.789,0.827-1.361,1.628-1.361
		c0.912,0,1.654,0.742,1.654,1.654c0,0.008,0,0.014,0,0.021H-29.859z M-22.295,35.74v3.921h-6.586V35.74H-22.295z"/>
	<path fill="#F7F7F7" d="M-25.588,27.926c-3.576,0-6.667,2.064-8.149,5.068h1.438c1.371-2.281,3.862-3.815,6.711-3.815
		c4.318,0,7.831,3.514,7.831,7.832c0,4.317-3.513,7.832-7.831,7.832c-4.299,0-7.797-3.482-7.829-7.772l1.309,1.309
		c0.122,0.122,0.283,0.183,0.443,0.183c0.16,0,0.32-0.061,0.442-0.183c0.245-0.244,0.245-0.642,0-0.887l-2.846-2.847l-2.846,2.847
		c-0.245,0.245-0.245,0.643,0,0.887c0.245,0.244,0.641,0.244,0.886,0l1.356-1.356c0.006,5.012,4.071,9.072,9.085,9.072
		c5.017,0,9.084-4.067,9.084-9.084C-16.503,31.993-20.571,27.926-25.588,27.926z"/>
</g>
</svg>
