<?xml version="1.0" encoding="utf-8"?>
<!-- Generator: Adobe Illustrator 16.0.0, SVG Export Plug-In . SVG Version: 6.00 Build 0)  -->
<!DOCTYPE svg PUBLIC "-//W3C//DTD SVG 1.1//EN" "http://www.w3.org/Graphics/SVG/1.1/DTD/svg11.dtd">
<svg version="1.1" id="Layer_1" xmlns="http://www.w3.org/2000/svg" xmlns:xlink="http://www.w3.org/1999/xlink" x="0px" y="0px"
	 width="17.98px" height="13.998px" viewBox="-8.319 17.969 17.98 13.998" enable-background="new -8.319 17.969 17.98 13.998"
	 xml:space="preserve">
<g>
	<polygon fill="#F7F7F7" points="8.4,30.734 -7.059,30.734 -7.059,20.605 -8.291,19.784 -8.291,31.967 9.634,31.967 9.634,19.784 
		8.4,20.605 	"/>
	<path fill="#F7F7F7" d="M9.661,17.969H7.896H7.75H-6.409H-6.76h-1.56l8.99,8.207L9.661,17.969z M6.4,19.201l-5.729,5.231
		l-5.729-5.231H6.4z"/>
</g>
</svg>
